<mxfile host="Electron" modified="2024-05-05T09:54:50.667Z" agent="Mozilla/5.0 (Windows NT 10.0; Win64; x64) AppleWebKit/537.36 (KHTML, like Gecko) draw.io/24.0.4 Chrome/120.0.6099.109 Electron/28.1.0 Safari/537.36" etag="CSxUQIJS5UZVq0uflRpp" version="24.0.4" type="device" pages="2">
  <diagram name="Образы" id="0YuscZVKNdm1CjhrpWPG">
    <mxGraphModel dx="1232" dy="1188" grid="1" gridSize="10" guides="1" tooltips="1" connect="1" arrows="1" fold="1" page="1" pageScale="1" pageWidth="827" pageHeight="1169" math="0" shadow="0">
      <root>
        <mxCell id="0" />
        <mxCell id="1" parent="0" />
        <mxCell id="Q8f8v6a1Qac9HFqo169w-38" style="edgeStyle=none;rounded=0;orthogonalLoop=1;jettySize=auto;html=1;exitX=1;exitY=0.5;exitDx=0;exitDy=0;" parent="1" source="Q8f8v6a1Qac9HFqo169w-1" target="Q8f8v6a1Qac9HFqo169w-42" edge="1">
          <mxGeometry relative="1" as="geometry">
            <mxPoint x="710" y="160.33333333333348" as="targetPoint" />
          </mxGeometry>
        </mxCell>
        <mxCell id="Q8f8v6a1Qac9HFqo169w-1" value="Б" style="ellipse;whiteSpace=wrap;html=1;" parent="1" vertex="1">
          <mxGeometry x="540" y="120" width="80" height="80" as="geometry" />
        </mxCell>
        <mxCell id="Q8f8v6a1Qac9HFqo169w-39" style="edgeStyle=none;rounded=0;orthogonalLoop=1;jettySize=auto;html=1;exitX=1;exitY=0.5;exitDx=0;exitDy=0;" parent="1" source="Q8f8v6a1Qac9HFqo169w-2" target="Q8f8v6a1Qac9HFqo169w-42" edge="1">
          <mxGeometry relative="1" as="geometry">
            <mxPoint x="720" y="300.3333333333335" as="targetPoint" />
          </mxGeometry>
        </mxCell>
        <mxCell id="Q8f8v6a1Qac9HFqo169w-2" value="Е" style="ellipse;whiteSpace=wrap;html=1;" parent="1" vertex="1">
          <mxGeometry x="540" y="260" width="80" height="80" as="geometry" />
        </mxCell>
        <mxCell id="Q8f8v6a1Qac9HFqo169w-40" style="edgeStyle=none;rounded=0;orthogonalLoop=1;jettySize=auto;html=1;exitX=1;exitY=0.5;exitDx=0;exitDy=0;" parent="1" source="Q8f8v6a1Qac9HFqo169w-3" target="Q8f8v6a1Qac9HFqo169w-42" edge="1">
          <mxGeometry relative="1" as="geometry">
            <mxPoint x="720" y="460.3333333333335" as="targetPoint" />
          </mxGeometry>
        </mxCell>
        <mxCell id="Q8f8v6a1Qac9HFqo169w-3" value="Л" style="ellipse;whiteSpace=wrap;html=1;" parent="1" vertex="1">
          <mxGeometry x="540" y="420" width="80" height="80" as="geometry" />
        </mxCell>
        <mxCell id="Q8f8v6a1Qac9HFqo169w-41" style="edgeStyle=none;rounded=0;orthogonalLoop=1;jettySize=auto;html=1;exitX=1;exitY=0.5;exitDx=0;exitDy=0;" parent="1" source="Q8f8v6a1Qac9HFqo169w-4" target="Q8f8v6a1Qac9HFqo169w-42" edge="1">
          <mxGeometry relative="1" as="geometry">
            <mxPoint x="720" y="640.3333333333335" as="targetPoint" />
          </mxGeometry>
        </mxCell>
        <mxCell id="Q8f8v6a1Qac9HFqo169w-4" value="?" style="ellipse;whiteSpace=wrap;html=1;" parent="1" vertex="1">
          <mxGeometry x="540" y="600" width="80" height="80" as="geometry" />
        </mxCell>
        <mxCell id="Q8f8v6a1Qac9HFqo169w-14" style="edgeStyle=none;rounded=0;orthogonalLoop=1;jettySize=auto;html=1;exitX=1;exitY=0.5;exitDx=0;exitDy=0;" parent="1" source="Q8f8v6a1Qac9HFqo169w-6" target="Q8f8v6a1Qac9HFqo169w-1" edge="1">
          <mxGeometry relative="1" as="geometry" />
        </mxCell>
        <mxCell id="Q8f8v6a1Qac9HFqo169w-20" style="edgeStyle=none;rounded=0;orthogonalLoop=1;jettySize=auto;html=1;exitX=1;exitY=0.5;exitDx=0;exitDy=0;" parent="1" source="Q8f8v6a1Qac9HFqo169w-6" target="Q8f8v6a1Qac9HFqo169w-2" edge="1">
          <mxGeometry relative="1" as="geometry" />
        </mxCell>
        <mxCell id="Q8f8v6a1Qac9HFqo169w-26" style="edgeStyle=none;rounded=0;orthogonalLoop=1;jettySize=auto;html=1;exitX=1;exitY=0.5;exitDx=0;exitDy=0;" parent="1" source="Q8f8v6a1Qac9HFqo169w-6" target="Q8f8v6a1Qac9HFqo169w-3" edge="1">
          <mxGeometry relative="1" as="geometry" />
        </mxCell>
        <mxCell id="Q8f8v6a1Qac9HFqo169w-32" style="edgeStyle=none;rounded=0;orthogonalLoop=1;jettySize=auto;html=1;exitX=1;exitY=0.5;exitDx=0;exitDy=0;" parent="1" source="Q8f8v6a1Qac9HFqo169w-6" target="Q8f8v6a1Qac9HFqo169w-4" edge="1">
          <mxGeometry relative="1" as="geometry" />
        </mxCell>
        <mxCell id="Q8f8v6a1Qac9HFqo169w-6" value="[0,0]" style="ellipse;whiteSpace=wrap;html=1;" parent="1" vertex="1">
          <mxGeometry x="140" y="120" width="80" height="80" as="geometry" />
        </mxCell>
        <mxCell id="Q8f8v6a1Qac9HFqo169w-15" style="edgeStyle=none;rounded=0;orthogonalLoop=1;jettySize=auto;html=1;exitX=1;exitY=0.5;exitDx=0;exitDy=0;" parent="1" source="Q8f8v6a1Qac9HFqo169w-7" target="Q8f8v6a1Qac9HFqo169w-1" edge="1">
          <mxGeometry relative="1" as="geometry" />
        </mxCell>
        <mxCell id="Q8f8v6a1Qac9HFqo169w-21" style="edgeStyle=none;rounded=0;orthogonalLoop=1;jettySize=auto;html=1;exitX=1;exitY=0.5;exitDx=0;exitDy=0;" parent="1" source="Q8f8v6a1Qac9HFqo169w-7" target="Q8f8v6a1Qac9HFqo169w-2" edge="1">
          <mxGeometry relative="1" as="geometry" />
        </mxCell>
        <mxCell id="Q8f8v6a1Qac9HFqo169w-27" style="edgeStyle=none;rounded=0;orthogonalLoop=1;jettySize=auto;html=1;exitX=1;exitY=0.5;exitDx=0;exitDy=0;" parent="1" source="Q8f8v6a1Qac9HFqo169w-7" target="Q8f8v6a1Qac9HFqo169w-3" edge="1">
          <mxGeometry relative="1" as="geometry" />
        </mxCell>
        <mxCell id="Q8f8v6a1Qac9HFqo169w-33" style="edgeStyle=none;rounded=0;orthogonalLoop=1;jettySize=auto;html=1;exitX=1;exitY=0.5;exitDx=0;exitDy=0;" parent="1" source="Q8f8v6a1Qac9HFqo169w-7" target="Q8f8v6a1Qac9HFqo169w-4" edge="1">
          <mxGeometry relative="1" as="geometry" />
        </mxCell>
        <mxCell id="Q8f8v6a1Qac9HFqo169w-7" value="[0,1]" style="ellipse;whiteSpace=wrap;html=1;" parent="1" vertex="1">
          <mxGeometry x="140" y="210" width="80" height="80" as="geometry" />
        </mxCell>
        <mxCell id="Q8f8v6a1Qac9HFqo169w-16" style="edgeStyle=none;rounded=0;orthogonalLoop=1;jettySize=auto;html=1;exitX=1;exitY=0.5;exitDx=0;exitDy=0;" parent="1" source="Q8f8v6a1Qac9HFqo169w-8" target="Q8f8v6a1Qac9HFqo169w-1" edge="1">
          <mxGeometry relative="1" as="geometry" />
        </mxCell>
        <mxCell id="Q8f8v6a1Qac9HFqo169w-22" style="edgeStyle=none;rounded=0;orthogonalLoop=1;jettySize=auto;html=1;exitX=1;exitY=0.5;exitDx=0;exitDy=0;" parent="1" source="Q8f8v6a1Qac9HFqo169w-8" target="Q8f8v6a1Qac9HFqo169w-2" edge="1">
          <mxGeometry relative="1" as="geometry" />
        </mxCell>
        <mxCell id="Q8f8v6a1Qac9HFqo169w-28" style="edgeStyle=none;rounded=0;orthogonalLoop=1;jettySize=auto;html=1;exitX=1;exitY=0.5;exitDx=0;exitDy=0;" parent="1" source="Q8f8v6a1Qac9HFqo169w-8" target="Q8f8v6a1Qac9HFqo169w-3" edge="1">
          <mxGeometry relative="1" as="geometry" />
        </mxCell>
        <mxCell id="Q8f8v6a1Qac9HFqo169w-34" style="edgeStyle=none;rounded=0;orthogonalLoop=1;jettySize=auto;html=1;exitX=1;exitY=0.5;exitDx=0;exitDy=0;" parent="1" source="Q8f8v6a1Qac9HFqo169w-8" target="Q8f8v6a1Qac9HFqo169w-4" edge="1">
          <mxGeometry relative="1" as="geometry" />
        </mxCell>
        <mxCell id="Q8f8v6a1Qac9HFqo169w-8" value="[0,9]" style="ellipse;whiteSpace=wrap;html=1;" parent="1" vertex="1">
          <mxGeometry x="140" y="330" width="80" height="80" as="geometry" />
        </mxCell>
        <mxCell id="Q8f8v6a1Qac9HFqo169w-19" style="edgeStyle=none;rounded=0;orthogonalLoop=1;jettySize=auto;html=1;exitX=1;exitY=0.5;exitDx=0;exitDy=0;" parent="1" source="Q8f8v6a1Qac9HFqo169w-9" target="Q8f8v6a1Qac9HFqo169w-1" edge="1">
          <mxGeometry relative="1" as="geometry" />
        </mxCell>
        <mxCell id="Q8f8v6a1Qac9HFqo169w-25" style="edgeStyle=none;rounded=0;orthogonalLoop=1;jettySize=auto;html=1;exitX=1;exitY=0.5;exitDx=0;exitDy=0;" parent="1" source="Q8f8v6a1Qac9HFqo169w-9" target="Q8f8v6a1Qac9HFqo169w-2" edge="1">
          <mxGeometry relative="1" as="geometry" />
        </mxCell>
        <mxCell id="Q8f8v6a1Qac9HFqo169w-31" style="edgeStyle=none;rounded=0;orthogonalLoop=1;jettySize=auto;html=1;exitX=1;exitY=0.5;exitDx=0;exitDy=0;" parent="1" source="Q8f8v6a1Qac9HFqo169w-9" target="Q8f8v6a1Qac9HFqo169w-3" edge="1">
          <mxGeometry relative="1" as="geometry" />
        </mxCell>
        <mxCell id="Q8f8v6a1Qac9HFqo169w-37" style="edgeStyle=none;rounded=0;orthogonalLoop=1;jettySize=auto;html=1;exitX=1;exitY=0.5;exitDx=0;exitDy=0;" parent="1" source="Q8f8v6a1Qac9HFqo169w-9" target="Q8f8v6a1Qac9HFqo169w-4" edge="1">
          <mxGeometry relative="1" as="geometry" />
        </mxCell>
        <mxCell id="Q8f8v6a1Qac9HFqo169w-9" value="[10,10]" style="ellipse;whiteSpace=wrap;html=1;" parent="1" vertex="1">
          <mxGeometry x="140" y="630" width="80" height="80" as="geometry" />
        </mxCell>
        <mxCell id="Q8f8v6a1Qac9HFqo169w-17" style="edgeStyle=none;rounded=0;orthogonalLoop=1;jettySize=auto;html=1;exitX=1;exitY=0.5;exitDx=0;exitDy=0;" parent="1" source="Q8f8v6a1Qac9HFqo169w-10" target="Q8f8v6a1Qac9HFqo169w-1" edge="1">
          <mxGeometry relative="1" as="geometry" />
        </mxCell>
        <mxCell id="Q8f8v6a1Qac9HFqo169w-23" style="edgeStyle=none;rounded=0;orthogonalLoop=1;jettySize=auto;html=1;exitX=1;exitY=0.5;exitDx=0;exitDy=0;" parent="1" source="Q8f8v6a1Qac9HFqo169w-10" target="Q8f8v6a1Qac9HFqo169w-2" edge="1">
          <mxGeometry relative="1" as="geometry" />
        </mxCell>
        <mxCell id="Q8f8v6a1Qac9HFqo169w-29" style="edgeStyle=none;rounded=0;orthogonalLoop=1;jettySize=auto;html=1;exitX=1;exitY=0.5;exitDx=0;exitDy=0;" parent="1" source="Q8f8v6a1Qac9HFqo169w-10" target="Q8f8v6a1Qac9HFqo169w-3" edge="1">
          <mxGeometry relative="1" as="geometry" />
        </mxCell>
        <mxCell id="Q8f8v6a1Qac9HFqo169w-35" style="edgeStyle=none;rounded=0;orthogonalLoop=1;jettySize=auto;html=1;exitX=1;exitY=0.5;exitDx=0;exitDy=0;" parent="1" source="Q8f8v6a1Qac9HFqo169w-10" target="Q8f8v6a1Qac9HFqo169w-4" edge="1">
          <mxGeometry relative="1" as="geometry" />
        </mxCell>
        <mxCell id="Q8f8v6a1Qac9HFqo169w-10" value="[1,0]" style="ellipse;whiteSpace=wrap;html=1;" parent="1" vertex="1">
          <mxGeometry x="140" y="420" width="80" height="80" as="geometry" />
        </mxCell>
        <mxCell id="Q8f8v6a1Qac9HFqo169w-18" style="edgeStyle=none;rounded=0;orthogonalLoop=1;jettySize=auto;html=1;exitX=1;exitY=0.5;exitDx=0;exitDy=0;" parent="1" source="Q8f8v6a1Qac9HFqo169w-11" target="Q8f8v6a1Qac9HFqo169w-1" edge="1">
          <mxGeometry relative="1" as="geometry" />
        </mxCell>
        <mxCell id="Q8f8v6a1Qac9HFqo169w-24" style="edgeStyle=none;rounded=0;orthogonalLoop=1;jettySize=auto;html=1;exitX=1;exitY=0.5;exitDx=0;exitDy=0;" parent="1" source="Q8f8v6a1Qac9HFqo169w-11" target="Q8f8v6a1Qac9HFqo169w-2" edge="1">
          <mxGeometry relative="1" as="geometry" />
        </mxCell>
        <mxCell id="Q8f8v6a1Qac9HFqo169w-30" style="edgeStyle=none;rounded=0;orthogonalLoop=1;jettySize=auto;html=1;exitX=1;exitY=0.5;exitDx=0;exitDy=0;" parent="1" source="Q8f8v6a1Qac9HFqo169w-11" target="Q8f8v6a1Qac9HFqo169w-3" edge="1">
          <mxGeometry relative="1" as="geometry" />
        </mxCell>
        <mxCell id="Q8f8v6a1Qac9HFqo169w-36" style="edgeStyle=none;rounded=0;orthogonalLoop=1;jettySize=auto;html=1;exitX=1;exitY=0.5;exitDx=0;exitDy=0;" parent="1" source="Q8f8v6a1Qac9HFqo169w-11" target="Q8f8v6a1Qac9HFqo169w-4" edge="1">
          <mxGeometry relative="1" as="geometry" />
        </mxCell>
        <mxCell id="Q8f8v6a1Qac9HFqo169w-11" value="[1,1]" style="ellipse;whiteSpace=wrap;html=1;" parent="1" vertex="1">
          <mxGeometry x="140" y="510" width="80" height="80" as="geometry" />
        </mxCell>
        <mxCell id="Q8f8v6a1Qac9HFqo169w-12" value="&lt;font style=&quot;font-size: 22px;&quot;&gt;...&lt;/font&gt;" style="text;html=1;align=center;verticalAlign=middle;whiteSpace=wrap;rounded=0;" parent="1" vertex="1">
          <mxGeometry x="150" y="296" width="60" height="30" as="geometry" />
        </mxCell>
        <mxCell id="Q8f8v6a1Qac9HFqo169w-13" value="&lt;font style=&quot;font-size: 22px;&quot;&gt;...&lt;/font&gt;" style="text;html=1;align=center;verticalAlign=middle;whiteSpace=wrap;rounded=0;" parent="1" vertex="1">
          <mxGeometry x="150" y="590" width="60" height="30" as="geometry" />
        </mxCell>
        <mxCell id="Q8f8v6a1Qac9HFqo169w-43" style="edgeStyle=none;rounded=0;orthogonalLoop=1;jettySize=auto;html=1;exitX=1;exitY=0.5;exitDx=0;exitDy=0;" parent="1" source="Q8f8v6a1Qac9HFqo169w-42" edge="1">
          <mxGeometry relative="1" as="geometry">
            <mxPoint x="810" y="390.3333333333335" as="targetPoint" />
          </mxGeometry>
        </mxCell>
        <mxCell id="Q8f8v6a1Qac9HFqo169w-42" value="Output" style="ellipse;whiteSpace=wrap;html=1;" parent="1" vertex="1">
          <mxGeometry x="690" y="350" width="80" height="80" as="geometry" />
        </mxCell>
      </root>
    </mxGraphModel>
  </diagram>
  <diagram id="NAAdNmiKr7NB8lWBktQy" name="1 Скрытый слой">
    <mxGraphModel dx="1232" dy="1188" grid="1" gridSize="10" guides="1" tooltips="1" connect="1" arrows="1" fold="1" page="1" pageScale="1" pageWidth="1169" pageHeight="827" math="0" shadow="0">
      <root>
        <mxCell id="0" />
        <mxCell id="1" parent="0" />
        <mxCell id="7KWVvLP--oqvq7YTAdSt-1" style="edgeStyle=none;rounded=0;orthogonalLoop=1;jettySize=auto;html=1;exitX=1;exitY=0.5;exitDx=0;exitDy=0;" edge="1" parent="1" source="7KWVvLP--oqvq7YTAdSt-2">
          <mxGeometry relative="1" as="geometry">
            <mxPoint x="1040" y="170" as="targetPoint" />
          </mxGeometry>
        </mxCell>
        <mxCell id="7KWVvLP--oqvq7YTAdSt-2" value="Б" style="ellipse;whiteSpace=wrap;html=1;" vertex="1" parent="1">
          <mxGeometry x="850" y="130" width="80" height="80" as="geometry" />
        </mxCell>
        <mxCell id="7KWVvLP--oqvq7YTAdSt-3" style="edgeStyle=none;rounded=0;orthogonalLoop=1;jettySize=auto;html=1;exitX=1;exitY=0.5;exitDx=0;exitDy=0;" edge="1" parent="1" source="7KWVvLP--oqvq7YTAdSt-4">
          <mxGeometry relative="1" as="geometry">
            <mxPoint x="1040" y="310" as="targetPoint" />
          </mxGeometry>
        </mxCell>
        <mxCell id="7KWVvLP--oqvq7YTAdSt-4" value="Е" style="ellipse;whiteSpace=wrap;html=1;" vertex="1" parent="1">
          <mxGeometry x="850" y="270" width="80" height="80" as="geometry" />
        </mxCell>
        <mxCell id="7KWVvLP--oqvq7YTAdSt-5" style="edgeStyle=none;rounded=0;orthogonalLoop=1;jettySize=auto;html=1;exitX=1;exitY=0.5;exitDx=0;exitDy=0;" edge="1" parent="1" source="7KWVvLP--oqvq7YTAdSt-6">
          <mxGeometry relative="1" as="geometry">
            <mxPoint x="1040" y="470" as="targetPoint" />
          </mxGeometry>
        </mxCell>
        <mxCell id="7KWVvLP--oqvq7YTAdSt-6" value="Л" style="ellipse;whiteSpace=wrap;html=1;" vertex="1" parent="1">
          <mxGeometry x="850" y="430" width="80" height="80" as="geometry" />
        </mxCell>
        <mxCell id="7KWVvLP--oqvq7YTAdSt-7" style="edgeStyle=none;rounded=0;orthogonalLoop=1;jettySize=auto;html=1;exitX=1;exitY=0.5;exitDx=0;exitDy=0;" edge="1" parent="1" source="7KWVvLP--oqvq7YTAdSt-8">
          <mxGeometry relative="1" as="geometry">
            <mxPoint x="1040" y="650" as="targetPoint" />
          </mxGeometry>
        </mxCell>
        <mxCell id="7KWVvLP--oqvq7YTAdSt-8" value="?" style="ellipse;whiteSpace=wrap;html=1;" vertex="1" parent="1">
          <mxGeometry x="850" y="610" width="80" height="80" as="geometry" />
        </mxCell>
        <mxCell id="7KWVvLP--oqvq7YTAdSt-9" style="edgeStyle=none;rounded=0;orthogonalLoop=1;jettySize=auto;html=1;exitX=1;exitY=0.5;exitDx=0;exitDy=0;" edge="1" parent="1" source="7KWVvLP--oqvq7YTAdSt-13" target="7KWVvLP--oqvq7YTAdSt-43">
          <mxGeometry relative="1" as="geometry" />
        </mxCell>
        <mxCell id="7KWVvLP--oqvq7YTAdSt-10" style="edgeStyle=none;rounded=0;orthogonalLoop=1;jettySize=auto;html=1;exitX=1;exitY=0.5;exitDx=0;exitDy=0;" edge="1" parent="1" source="7KWVvLP--oqvq7YTAdSt-13" target="7KWVvLP--oqvq7YTAdSt-44">
          <mxGeometry relative="1" as="geometry" />
        </mxCell>
        <mxCell id="7KWVvLP--oqvq7YTAdSt-11" style="edgeStyle=none;rounded=0;orthogonalLoop=1;jettySize=auto;html=1;exitX=1;exitY=0.5;exitDx=0;exitDy=0;" edge="1" parent="1" source="7KWVvLP--oqvq7YTAdSt-13" target="7KWVvLP--oqvq7YTAdSt-45">
          <mxGeometry relative="1" as="geometry" />
        </mxCell>
        <mxCell id="7KWVvLP--oqvq7YTAdSt-48" style="edgeStyle=none;rounded=0;orthogonalLoop=1;jettySize=auto;html=1;exitX=1;exitY=0.5;exitDx=0;exitDy=0;" edge="1" parent="1" source="7KWVvLP--oqvq7YTAdSt-13" target="7KWVvLP--oqvq7YTAdSt-46">
          <mxGeometry relative="1" as="geometry" />
        </mxCell>
        <mxCell id="7KWVvLP--oqvq7YTAdSt-54" style="edgeStyle=none;rounded=0;orthogonalLoop=1;jettySize=auto;html=1;exitX=1;exitY=0.5;exitDx=0;exitDy=0;" edge="1" parent="1" source="7KWVvLP--oqvq7YTAdSt-13" target="7KWVvLP--oqvq7YTAdSt-47">
          <mxGeometry relative="1" as="geometry" />
        </mxCell>
        <mxCell id="7KWVvLP--oqvq7YTAdSt-13" value="[0,0]" style="ellipse;whiteSpace=wrap;html=1;" vertex="1" parent="1">
          <mxGeometry x="140" y="120" width="80" height="80" as="geometry" />
        </mxCell>
        <mxCell id="7KWVvLP--oqvq7YTAdSt-14" style="edgeStyle=none;rounded=0;orthogonalLoop=1;jettySize=auto;html=1;exitX=1;exitY=0.5;exitDx=0;exitDy=0;" edge="1" parent="1" source="7KWVvLP--oqvq7YTAdSt-18" target="7KWVvLP--oqvq7YTAdSt-43">
          <mxGeometry relative="1" as="geometry" />
        </mxCell>
        <mxCell id="7KWVvLP--oqvq7YTAdSt-15" style="edgeStyle=none;rounded=0;orthogonalLoop=1;jettySize=auto;html=1;exitX=1;exitY=0.5;exitDx=0;exitDy=0;" edge="1" parent="1" source="7KWVvLP--oqvq7YTAdSt-18" target="7KWVvLP--oqvq7YTAdSt-44">
          <mxGeometry relative="1" as="geometry" />
        </mxCell>
        <mxCell id="7KWVvLP--oqvq7YTAdSt-16" style="edgeStyle=none;rounded=0;orthogonalLoop=1;jettySize=auto;html=1;exitX=1;exitY=0.5;exitDx=0;exitDy=0;" edge="1" parent="1" source="7KWVvLP--oqvq7YTAdSt-18" target="7KWVvLP--oqvq7YTAdSt-45">
          <mxGeometry relative="1" as="geometry" />
        </mxCell>
        <mxCell id="7KWVvLP--oqvq7YTAdSt-49" style="edgeStyle=none;rounded=0;orthogonalLoop=1;jettySize=auto;html=1;exitX=1;exitY=0.5;exitDx=0;exitDy=0;" edge="1" parent="1" source="7KWVvLP--oqvq7YTAdSt-18" target="7KWVvLP--oqvq7YTAdSt-46">
          <mxGeometry relative="1" as="geometry" />
        </mxCell>
        <mxCell id="7KWVvLP--oqvq7YTAdSt-55" style="edgeStyle=none;rounded=0;orthogonalLoop=1;jettySize=auto;html=1;exitX=1;exitY=0.5;exitDx=0;exitDy=0;" edge="1" parent="1" source="7KWVvLP--oqvq7YTAdSt-18" target="7KWVvLP--oqvq7YTAdSt-47">
          <mxGeometry relative="1" as="geometry" />
        </mxCell>
        <mxCell id="7KWVvLP--oqvq7YTAdSt-18" value="[0,1]" style="ellipse;whiteSpace=wrap;html=1;" vertex="1" parent="1">
          <mxGeometry x="140" y="210" width="80" height="80" as="geometry" />
        </mxCell>
        <mxCell id="7KWVvLP--oqvq7YTAdSt-19" style="edgeStyle=none;rounded=0;orthogonalLoop=1;jettySize=auto;html=1;exitX=1;exitY=0.5;exitDx=0;exitDy=0;" edge="1" parent="1" source="7KWVvLP--oqvq7YTAdSt-23" target="7KWVvLP--oqvq7YTAdSt-43">
          <mxGeometry relative="1" as="geometry" />
        </mxCell>
        <mxCell id="7KWVvLP--oqvq7YTAdSt-20" style="edgeStyle=none;rounded=0;orthogonalLoop=1;jettySize=auto;html=1;exitX=1;exitY=0.5;exitDx=0;exitDy=0;" edge="1" parent="1" source="7KWVvLP--oqvq7YTAdSt-23" target="7KWVvLP--oqvq7YTAdSt-44">
          <mxGeometry relative="1" as="geometry" />
        </mxCell>
        <mxCell id="7KWVvLP--oqvq7YTAdSt-21" style="edgeStyle=none;rounded=0;orthogonalLoop=1;jettySize=auto;html=1;exitX=1;exitY=0.5;exitDx=0;exitDy=0;" edge="1" parent="1" source="7KWVvLP--oqvq7YTAdSt-23" target="7KWVvLP--oqvq7YTAdSt-45">
          <mxGeometry relative="1" as="geometry" />
        </mxCell>
        <mxCell id="7KWVvLP--oqvq7YTAdSt-50" style="edgeStyle=none;rounded=0;orthogonalLoop=1;jettySize=auto;html=1;exitX=1;exitY=0.5;exitDx=0;exitDy=0;" edge="1" parent="1" source="7KWVvLP--oqvq7YTAdSt-23" target="7KWVvLP--oqvq7YTAdSt-46">
          <mxGeometry relative="1" as="geometry" />
        </mxCell>
        <mxCell id="7KWVvLP--oqvq7YTAdSt-56" style="edgeStyle=none;rounded=0;orthogonalLoop=1;jettySize=auto;html=1;exitX=1;exitY=0.5;exitDx=0;exitDy=0;" edge="1" parent="1" source="7KWVvLP--oqvq7YTAdSt-23" target="7KWVvLP--oqvq7YTAdSt-47">
          <mxGeometry relative="1" as="geometry" />
        </mxCell>
        <mxCell id="7KWVvLP--oqvq7YTAdSt-23" value="[0,9]" style="ellipse;whiteSpace=wrap;html=1;" vertex="1" parent="1">
          <mxGeometry x="140" y="330" width="80" height="80" as="geometry" />
        </mxCell>
        <mxCell id="7KWVvLP--oqvq7YTAdSt-24" style="edgeStyle=none;rounded=0;orthogonalLoop=1;jettySize=auto;html=1;exitX=1;exitY=0.5;exitDx=0;exitDy=0;" edge="1" parent="1" source="7KWVvLP--oqvq7YTAdSt-28" target="7KWVvLP--oqvq7YTAdSt-43">
          <mxGeometry relative="1" as="geometry" />
        </mxCell>
        <mxCell id="7KWVvLP--oqvq7YTAdSt-25" style="edgeStyle=none;rounded=0;orthogonalLoop=1;jettySize=auto;html=1;exitX=1;exitY=0.5;exitDx=0;exitDy=0;" edge="1" parent="1" source="7KWVvLP--oqvq7YTAdSt-28" target="7KWVvLP--oqvq7YTAdSt-44">
          <mxGeometry relative="1" as="geometry" />
        </mxCell>
        <mxCell id="7KWVvLP--oqvq7YTAdSt-26" style="rounded=0;orthogonalLoop=1;jettySize=auto;html=1;exitX=1;exitY=0.5;exitDx=0;exitDy=0;" edge="1" parent="1" source="7KWVvLP--oqvq7YTAdSt-28" target="7KWVvLP--oqvq7YTAdSt-45">
          <mxGeometry relative="1" as="geometry" />
        </mxCell>
        <mxCell id="7KWVvLP--oqvq7YTAdSt-53" style="edgeStyle=none;rounded=0;orthogonalLoop=1;jettySize=auto;html=1;exitX=1;exitY=0.5;exitDx=0;exitDy=0;" edge="1" parent="1" source="7KWVvLP--oqvq7YTAdSt-28" target="7KWVvLP--oqvq7YTAdSt-46">
          <mxGeometry relative="1" as="geometry" />
        </mxCell>
        <mxCell id="7KWVvLP--oqvq7YTAdSt-59" style="edgeStyle=none;rounded=0;orthogonalLoop=1;jettySize=auto;html=1;exitX=1;exitY=0.5;exitDx=0;exitDy=0;" edge="1" parent="1" source="7KWVvLP--oqvq7YTAdSt-28" target="7KWVvLP--oqvq7YTAdSt-47">
          <mxGeometry relative="1" as="geometry" />
        </mxCell>
        <mxCell id="7KWVvLP--oqvq7YTAdSt-28" value="[10,10]" style="ellipse;whiteSpace=wrap;html=1;" vertex="1" parent="1">
          <mxGeometry x="140" y="630" width="80" height="80" as="geometry" />
        </mxCell>
        <mxCell id="7KWVvLP--oqvq7YTAdSt-29" style="edgeStyle=none;rounded=0;orthogonalLoop=1;jettySize=auto;html=1;exitX=1;exitY=0.5;exitDx=0;exitDy=0;" edge="1" parent="1" source="7KWVvLP--oqvq7YTAdSt-33" target="7KWVvLP--oqvq7YTAdSt-43">
          <mxGeometry relative="1" as="geometry" />
        </mxCell>
        <mxCell id="7KWVvLP--oqvq7YTAdSt-30" style="edgeStyle=none;rounded=0;orthogonalLoop=1;jettySize=auto;html=1;exitX=1;exitY=0.5;exitDx=0;exitDy=0;" edge="1" parent="1" source="7KWVvLP--oqvq7YTAdSt-33" target="7KWVvLP--oqvq7YTAdSt-44">
          <mxGeometry relative="1" as="geometry" />
        </mxCell>
        <mxCell id="7KWVvLP--oqvq7YTAdSt-31" style="edgeStyle=none;rounded=0;orthogonalLoop=1;jettySize=auto;html=1;exitX=1;exitY=0.5;exitDx=0;exitDy=0;" edge="1" parent="1" source="7KWVvLP--oqvq7YTAdSt-33" target="7KWVvLP--oqvq7YTAdSt-45">
          <mxGeometry relative="1" as="geometry" />
        </mxCell>
        <mxCell id="7KWVvLP--oqvq7YTAdSt-51" style="edgeStyle=none;rounded=0;orthogonalLoop=1;jettySize=auto;html=1;exitX=1;exitY=0.5;exitDx=0;exitDy=0;" edge="1" parent="1" source="7KWVvLP--oqvq7YTAdSt-33" target="7KWVvLP--oqvq7YTAdSt-46">
          <mxGeometry relative="1" as="geometry" />
        </mxCell>
        <mxCell id="7KWVvLP--oqvq7YTAdSt-57" style="edgeStyle=none;rounded=0;orthogonalLoop=1;jettySize=auto;html=1;exitX=1;exitY=0.5;exitDx=0;exitDy=0;" edge="1" parent="1" source="7KWVvLP--oqvq7YTAdSt-33" target="7KWVvLP--oqvq7YTAdSt-47">
          <mxGeometry relative="1" as="geometry" />
        </mxCell>
        <mxCell id="7KWVvLP--oqvq7YTAdSt-33" value="[1,0]" style="ellipse;whiteSpace=wrap;html=1;" vertex="1" parent="1">
          <mxGeometry x="140" y="420" width="80" height="80" as="geometry" />
        </mxCell>
        <mxCell id="7KWVvLP--oqvq7YTAdSt-34" style="edgeStyle=none;rounded=0;orthogonalLoop=1;jettySize=auto;html=1;exitX=1;exitY=0.5;exitDx=0;exitDy=0;" edge="1" parent="1" source="7KWVvLP--oqvq7YTAdSt-38" target="7KWVvLP--oqvq7YTAdSt-43">
          <mxGeometry relative="1" as="geometry" />
        </mxCell>
        <mxCell id="7KWVvLP--oqvq7YTAdSt-35" style="edgeStyle=none;rounded=0;orthogonalLoop=1;jettySize=auto;html=1;exitX=1;exitY=0.5;exitDx=0;exitDy=0;" edge="1" parent="1" source="7KWVvLP--oqvq7YTAdSt-38" target="7KWVvLP--oqvq7YTAdSt-44">
          <mxGeometry relative="1" as="geometry" />
        </mxCell>
        <mxCell id="7KWVvLP--oqvq7YTAdSt-36" style="edgeStyle=none;rounded=0;orthogonalLoop=1;jettySize=auto;html=1;exitX=1;exitY=0.5;exitDx=0;exitDy=0;" edge="1" parent="1" source="7KWVvLP--oqvq7YTAdSt-38" target="7KWVvLP--oqvq7YTAdSt-45">
          <mxGeometry relative="1" as="geometry" />
        </mxCell>
        <mxCell id="7KWVvLP--oqvq7YTAdSt-52" style="edgeStyle=none;rounded=0;orthogonalLoop=1;jettySize=auto;html=1;exitX=1;exitY=0.5;exitDx=0;exitDy=0;" edge="1" parent="1" source="7KWVvLP--oqvq7YTAdSt-38" target="7KWVvLP--oqvq7YTAdSt-46">
          <mxGeometry relative="1" as="geometry" />
        </mxCell>
        <mxCell id="7KWVvLP--oqvq7YTAdSt-58" style="edgeStyle=none;rounded=0;orthogonalLoop=1;jettySize=auto;html=1;exitX=1;exitY=0.5;exitDx=0;exitDy=0;" edge="1" parent="1" source="7KWVvLP--oqvq7YTAdSt-38" target="7KWVvLP--oqvq7YTAdSt-47">
          <mxGeometry relative="1" as="geometry" />
        </mxCell>
        <mxCell id="7KWVvLP--oqvq7YTAdSt-38" value="[1,1]" style="ellipse;whiteSpace=wrap;html=1;" vertex="1" parent="1">
          <mxGeometry x="140" y="510" width="80" height="80" as="geometry" />
        </mxCell>
        <mxCell id="7KWVvLP--oqvq7YTAdSt-39" value="&lt;font style=&quot;font-size: 22px;&quot;&gt;...&lt;/font&gt;" style="text;html=1;align=center;verticalAlign=middle;whiteSpace=wrap;rounded=0;" vertex="1" parent="1">
          <mxGeometry x="150" y="296" width="60" height="30" as="geometry" />
        </mxCell>
        <mxCell id="7KWVvLP--oqvq7YTAdSt-40" value="&lt;font style=&quot;font-size: 22px;&quot;&gt;...&lt;/font&gt;" style="text;html=1;align=center;verticalAlign=middle;whiteSpace=wrap;rounded=0;" vertex="1" parent="1">
          <mxGeometry x="150" y="590" width="60" height="30" as="geometry" />
        </mxCell>
        <mxCell id="7KWVvLP--oqvq7YTAdSt-60" style="edgeStyle=none;rounded=0;orthogonalLoop=1;jettySize=auto;html=1;exitX=1;exitY=0.5;exitDx=0;exitDy=0;" edge="1" parent="1" source="7KWVvLP--oqvq7YTAdSt-43" target="7KWVvLP--oqvq7YTAdSt-2">
          <mxGeometry relative="1" as="geometry" />
        </mxCell>
        <mxCell id="7KWVvLP--oqvq7YTAdSt-65" style="edgeStyle=none;rounded=0;orthogonalLoop=1;jettySize=auto;html=1;exitX=1;exitY=0.5;exitDx=0;exitDy=0;" edge="1" parent="1" source="7KWVvLP--oqvq7YTAdSt-43" target="7KWVvLP--oqvq7YTAdSt-4">
          <mxGeometry relative="1" as="geometry" />
        </mxCell>
        <mxCell id="7KWVvLP--oqvq7YTAdSt-70" style="edgeStyle=none;rounded=0;orthogonalLoop=1;jettySize=auto;html=1;exitX=1;exitY=0.5;exitDx=0;exitDy=0;" edge="1" parent="1" source="7KWVvLP--oqvq7YTAdSt-43" target="7KWVvLP--oqvq7YTAdSt-6">
          <mxGeometry relative="1" as="geometry" />
        </mxCell>
        <mxCell id="7KWVvLP--oqvq7YTAdSt-76" style="edgeStyle=none;rounded=0;orthogonalLoop=1;jettySize=auto;html=1;exitX=1;exitY=0.5;exitDx=0;exitDy=0;" edge="1" parent="1" source="7KWVvLP--oqvq7YTAdSt-43" target="7KWVvLP--oqvq7YTAdSt-8">
          <mxGeometry relative="1" as="geometry" />
        </mxCell>
        <mxCell id="7KWVvLP--oqvq7YTAdSt-43" value="1" style="ellipse;whiteSpace=wrap;html=1;" vertex="1" parent="1">
          <mxGeometry x="490" y="120" width="80" height="80" as="geometry" />
        </mxCell>
        <mxCell id="7KWVvLP--oqvq7YTAdSt-61" style="edgeStyle=none;rounded=0;orthogonalLoop=1;jettySize=auto;html=1;exitX=1;exitY=0.5;exitDx=0;exitDy=0;" edge="1" parent="1" source="7KWVvLP--oqvq7YTAdSt-44" target="7KWVvLP--oqvq7YTAdSt-2">
          <mxGeometry relative="1" as="geometry" />
        </mxCell>
        <mxCell id="7KWVvLP--oqvq7YTAdSt-66" style="edgeStyle=none;rounded=0;orthogonalLoop=1;jettySize=auto;html=1;exitX=1;exitY=0.5;exitDx=0;exitDy=0;" edge="1" parent="1" source="7KWVvLP--oqvq7YTAdSt-44" target="7KWVvLP--oqvq7YTAdSt-4">
          <mxGeometry relative="1" as="geometry" />
        </mxCell>
        <mxCell id="7KWVvLP--oqvq7YTAdSt-71" style="edgeStyle=none;rounded=0;orthogonalLoop=1;jettySize=auto;html=1;exitX=1;exitY=0.5;exitDx=0;exitDy=0;" edge="1" parent="1" source="7KWVvLP--oqvq7YTAdSt-44" target="7KWVvLP--oqvq7YTAdSt-6">
          <mxGeometry relative="1" as="geometry" />
        </mxCell>
        <mxCell id="7KWVvLP--oqvq7YTAdSt-77" style="edgeStyle=none;rounded=0;orthogonalLoop=1;jettySize=auto;html=1;exitX=1;exitY=0.5;exitDx=0;exitDy=0;" edge="1" parent="1" source="7KWVvLP--oqvq7YTAdSt-44" target="7KWVvLP--oqvq7YTAdSt-8">
          <mxGeometry relative="1" as="geometry" />
        </mxCell>
        <mxCell id="7KWVvLP--oqvq7YTAdSt-44" value="2" style="ellipse;whiteSpace=wrap;html=1;" vertex="1" parent="1">
          <mxGeometry x="490" y="210" width="80" height="80" as="geometry" />
        </mxCell>
        <mxCell id="7KWVvLP--oqvq7YTAdSt-62" style="edgeStyle=none;rounded=0;orthogonalLoop=1;jettySize=auto;html=1;exitX=1;exitY=0.5;exitDx=0;exitDy=0;" edge="1" parent="1" source="7KWVvLP--oqvq7YTAdSt-45" target="7KWVvLP--oqvq7YTAdSt-2">
          <mxGeometry relative="1" as="geometry" />
        </mxCell>
        <mxCell id="7KWVvLP--oqvq7YTAdSt-67" style="edgeStyle=none;rounded=0;orthogonalLoop=1;jettySize=auto;html=1;exitX=1;exitY=0.5;exitDx=0;exitDy=0;" edge="1" parent="1" source="7KWVvLP--oqvq7YTAdSt-45" target="7KWVvLP--oqvq7YTAdSt-4">
          <mxGeometry relative="1" as="geometry" />
        </mxCell>
        <mxCell id="7KWVvLP--oqvq7YTAdSt-72" style="edgeStyle=none;rounded=0;orthogonalLoop=1;jettySize=auto;html=1;exitX=1;exitY=0.5;exitDx=0;exitDy=0;" edge="1" parent="1" source="7KWVvLP--oqvq7YTAdSt-45" target="7KWVvLP--oqvq7YTAdSt-6">
          <mxGeometry relative="1" as="geometry" />
        </mxCell>
        <mxCell id="7KWVvLP--oqvq7YTAdSt-78" style="edgeStyle=none;rounded=0;orthogonalLoop=1;jettySize=auto;html=1;exitX=1;exitY=0.5;exitDx=0;exitDy=0;" edge="1" parent="1" source="7KWVvLP--oqvq7YTAdSt-45" target="7KWVvLP--oqvq7YTAdSt-8">
          <mxGeometry relative="1" as="geometry" />
        </mxCell>
        <mxCell id="7KWVvLP--oqvq7YTAdSt-45" value="3" style="ellipse;whiteSpace=wrap;html=1;" vertex="1" parent="1">
          <mxGeometry x="490" y="310" width="80" height="80" as="geometry" />
        </mxCell>
        <mxCell id="7KWVvLP--oqvq7YTAdSt-63" style="edgeStyle=none;rounded=0;orthogonalLoop=1;jettySize=auto;html=1;exitX=1;exitY=0.5;exitDx=0;exitDy=0;" edge="1" parent="1" source="7KWVvLP--oqvq7YTAdSt-46" target="7KWVvLP--oqvq7YTAdSt-2">
          <mxGeometry relative="1" as="geometry" />
        </mxCell>
        <mxCell id="7KWVvLP--oqvq7YTAdSt-68" style="edgeStyle=none;rounded=0;orthogonalLoop=1;jettySize=auto;html=1;exitX=1;exitY=0.5;exitDx=0;exitDy=0;" edge="1" parent="1" source="7KWVvLP--oqvq7YTAdSt-46" target="7KWVvLP--oqvq7YTAdSt-4">
          <mxGeometry relative="1" as="geometry" />
        </mxCell>
        <mxCell id="7KWVvLP--oqvq7YTAdSt-73" style="edgeStyle=none;rounded=0;orthogonalLoop=1;jettySize=auto;html=1;exitX=1;exitY=0.5;exitDx=0;exitDy=0;" edge="1" parent="1" source="7KWVvLP--oqvq7YTAdSt-46" target="7KWVvLP--oqvq7YTAdSt-6">
          <mxGeometry relative="1" as="geometry" />
        </mxCell>
        <mxCell id="7KWVvLP--oqvq7YTAdSt-79" style="edgeStyle=none;rounded=0;orthogonalLoop=1;jettySize=auto;html=1;exitX=1;exitY=0.5;exitDx=0;exitDy=0;" edge="1" parent="1" source="7KWVvLP--oqvq7YTAdSt-46" target="7KWVvLP--oqvq7YTAdSt-8">
          <mxGeometry relative="1" as="geometry" />
        </mxCell>
        <mxCell id="7KWVvLP--oqvq7YTAdSt-46" value="4" style="ellipse;whiteSpace=wrap;html=1;" vertex="1" parent="1">
          <mxGeometry x="490" y="410" width="80" height="80" as="geometry" />
        </mxCell>
        <mxCell id="7KWVvLP--oqvq7YTAdSt-64" style="edgeStyle=none;rounded=0;orthogonalLoop=1;jettySize=auto;html=1;exitX=1;exitY=0.5;exitDx=0;exitDy=0;" edge="1" parent="1" source="7KWVvLP--oqvq7YTAdSt-47" target="7KWVvLP--oqvq7YTAdSt-2">
          <mxGeometry relative="1" as="geometry" />
        </mxCell>
        <mxCell id="7KWVvLP--oqvq7YTAdSt-69" style="edgeStyle=none;rounded=0;orthogonalLoop=1;jettySize=auto;html=1;exitX=1;exitY=0.5;exitDx=0;exitDy=0;" edge="1" parent="1" source="7KWVvLP--oqvq7YTAdSt-47" target="7KWVvLP--oqvq7YTAdSt-4">
          <mxGeometry relative="1" as="geometry" />
        </mxCell>
        <mxCell id="7KWVvLP--oqvq7YTAdSt-74" style="edgeStyle=none;rounded=0;orthogonalLoop=1;jettySize=auto;html=1;exitX=1;exitY=0.5;exitDx=0;exitDy=0;" edge="1" parent="1" source="7KWVvLP--oqvq7YTAdSt-47" target="7KWVvLP--oqvq7YTAdSt-6">
          <mxGeometry relative="1" as="geometry" />
        </mxCell>
        <mxCell id="7KWVvLP--oqvq7YTAdSt-75" style="edgeStyle=none;rounded=0;orthogonalLoop=1;jettySize=auto;html=1;exitX=1;exitY=0.5;exitDx=0;exitDy=0;" edge="1" parent="1" source="7KWVvLP--oqvq7YTAdSt-47" target="7KWVvLP--oqvq7YTAdSt-8">
          <mxGeometry relative="1" as="geometry" />
        </mxCell>
        <mxCell id="7KWVvLP--oqvq7YTAdSt-47" value="200" style="ellipse;whiteSpace=wrap;html=1;" vertex="1" parent="1">
          <mxGeometry x="490" y="610" width="80" height="80" as="geometry" />
        </mxCell>
        <mxCell id="7KWVvLP--oqvq7YTAdSt-80" value="&lt;font style=&quot;font-size: 22px;&quot;&gt;...&lt;/font&gt;" style="text;html=1;align=center;verticalAlign=middle;whiteSpace=wrap;rounded=0;" vertex="1" parent="1">
          <mxGeometry x="500" y="535" width="60" height="30" as="geometry" />
        </mxCell>
      </root>
    </mxGraphModel>
  </diagram>
</mxfile>
